<?xml version="1.0" encoding="UTF-8"?>
<svg height="16px" viewBox="0 0 16 16" width="16px" xmlns="http://www.w3.org/2000/svg" xmlns:xlink="http://www.w3.org/1999/xlink">
    <filter id="a" height="100%" width="100%" x="0%" y="0%">
        <feColorMatrix in="SourceGraphic" type="matrix" values="0 0 0 0 1 0 0 0 0 1 0 0 0 0 1 0 0 0 1 0"/>
    </filter>
    <mask id="b">
        <g filter="url(#a)">
            <rect fill-opacity="0.1" height="16" width="16"/>
        </g>
    </mask>
    <clipPath id="c">
        <rect height="152" width="192"/>
    </clipPath>
    <g clip-path="url(#c)" mask="url(#b)" transform="matrix(1 0 0 1 -168 -16)">
        <path d="m 34 50 v 68 h 70 c 4.433594 0 8 -3.566406 8 -8 v -52 c 0 -4.433594 -3.566406 -8 -8 -8 z m 0 0"/>
    </g>
    <path d="m 2 0 v 13 h 2 v 3 l 1 -1 l 1.011719 1.003906 l -0.011719 -3.003906 h 4 v -13 z m 9.011719 0 v 13 c 1.089843 0 2 -0.910156 2 -2 v -9 c 0 -1.089844 -0.910157 -2 -2 -2 z m 0 0" fill="#bebebe"/>
</svg>
